{
	"info": {
		"_postman_id": "98a073fc-62d8-4480-a8d3-02c7c1ab8d0d",
		"name": "back JWT",
		"schema": "https://schema.getpostman.com/json/collection/v2.1.0/collection.json"
	},
	"item": [
		{
			"name": "Rota 1",
			"request": {
				"method": "GET",
				"header": [
					{
						"key": "Authorization",
						"value": "{{token}}",
						"type": "text"
					}
				],
				"url": {
					"raw": "{{host}}/rota1",
					"host": [
						"{{host}}"
					],
					"path": [
						"rota1"
					]
				}
			},
			"response": []
		},
		{
			"name": "Rota 2",
			"request": {
				"method": "GET",
				"header": [
					{
						"key": "Authorization",
						"value": "{{token}}",
						"type": "text"
					}
				],
				"url": {
					"raw": "{{host}}/rota2",
					"host": [
						"{{host}}"
					],
					"path": [
						"rota2"
					]
				}
			},
			"response": []
		},
		{
			"name": "Rota 3",
			"request": {
				"method": "GET",
				"header": [
					{
						"key": "Authorization",
						"value": "{{token}}",
						"type": "text"
					}
				],
				"url": {
					"raw": "{{host}}/rota3",
					"host": [
						"{{host}}"
					],
					"path": [
						"rota3"
					]
				}
			},
			"response": []
		},
		{
			"name": "Rota 4",
			"request": {
				"method": "GET",
				"header": [
					{
						"key": "Authorization",
						"value": "{{token}}",
						"type": "text"
					}
				],
				"url": {
					"raw": "{{host}}/rota4",
					"host": [
						"{{host}}"
					],
					"path": [
						"rota4"
					]
				}
			},
			"response": []
		},
		{
			"name": "Rota 5",
			"request": {
				"method": "GET",
				"header": [
					{
						"key": "Authorization",
						"value": "{{token}}",
						"type": "text"
					}
				],
				"url": {
					"raw": "{{host}}/rota5",
					"host": [
						"{{host}}"
					],
					"path": [
						"rota5"
					]
				}
			},
			"response": []
		},
		{
			"name": "login",
			"request": {
				"method": "POST",
				"header": [],
				"body": {
					"mode": "raw",
					"raw": "{\n    \"email\": \"admin@email.com\",\n    \"password\": \"admin123\"\n}",
					"options": {
						"raw": {
							"language": "json"
						}
					}
				},
				"url": {
					"raw": "{{host}}/login",
					"host": [
						"{{host}}"
					],
					"path": [
						"login"
					]
				}
			},
			"response": []
		},
		{
			"name": "logout",
			"request": {
				"method": "POST",
				"header": [
					{
						"key": "Authorization",
						"value": "{{token}}",
						"type": "text"
					}
				],
				"body": {
					"mode": "raw",
					"raw": "{}",
					"options": {
						"raw": {
							"language": "json"
						}
					}
				},
				"url": {
					"raw": "{{host}}/logout",
					"host": [
						"{{host}}"
					],
					"path": [
						"logout"
					]
				}
			},
			"response": []
		}
	],
	"event": [
		{
			"listen": "prerequest",
			"script": {
				"type": "text/javascript",
				"exec": [
					""
				]
			}
		},
		{
			"listen": "test",
			"script": {
				"type": "text/javascript",
				"exec": [
					""
				]
			}
		}
	],
	"variable": [
		{
			"key": "host",
			"value": ""
		},
		{
			"key": "token",
			"value": ""
		}
	]
}